"This is a date field. Say ""Hello, date field!"" So, what date is today?",This is a number field. It contains numbers. What is your favorite prime number? #GeekAllert,We went rogue and added the checkmark field! Is Keboola the best company in the known universe to work for?,Now is time for the multi-choice question! What is your favorite kind of Pho?,The dirtiest data field of all data fields. The address field. The true nightmare of every data analyst!
2017-03-17,3,1,I love all kinds of Pho. Pho for the president!,"210 - 1461 Johnston Rd, White Rock, BC V4B 3Z4"
2016-12-31,7,,"More ingredients, the better. I like my Pho full of taste. ",15230 Russell Ave White Rock BC V4B
,,,,
1921-04-01,13,1,"I don't eat Pho but I'll start immediately! So sorry, so Pho!","Krizikova 488/115, 186 00 Praha 8-Karlin, Czechia"
2007-01-01,10,1,Beef and basic is my choice of Pho.,"30 Cecil St, #19-06 Singapore 049712"
2015-02-16,17,1,,"WeWork 9 Devonshire Square, London EC2M 4YD, United Kingdom"
,101,,I love all kinds of Pho. Pho for the president!,"1150 Davie St, Vancouver, BC V6E 1N1"
2017-03-23,7,1,Beef and basic is my choice of Pho.,"123 Evergreen Terrace
Springfield, IL 12345"
2017-03-23,1,,,"Left the multi-choice blank, just because"
2017-03-23,7,1,Beef and basic is my choice of Pho.,"123 Evergreen Terrace
Springfield, IL 12345"
,,,,
2017-03-23,73,1,"I don't eat Pho but I'll start immediately! So sorry, so Pho!","All work and no play makes jack a dull boy.
All work and no play makes jack a dull boy.
All work and no play makes jack a dull boy.
All work and no play makes jack a dull boy.
All work and no play makes jack a dull boy."
,,,,
